Mapas e análise exploratória dos dados
…
Análise exploratória

base_homicidios <- read_excel(file.path(dropbox, "Base_homicidios.xlsx"))
base_homicidios <- base_homicidios %>%
  separate(Município, c("code_muni", "name_muni"), sep = 7) %>%
  separate(code_muni, c("code_muni", NA), sep = -1) %>%
  select(-name_muni)

base_homicidios

# A tibble: 5,566 × 18
   code_muni Taxa_de_analfabetismo Taxa_de_desemprego_16a…¹  Gini PIB_per_capita
   <chr>                     <dbl>                    <dbl> <dbl>          <dbl>
 1 110001                     12                       5.01 0.589         10726.
 2 110002                      7.9                     4.64 0.549         15070.
 3 110003                     13.8                     2.49 0.542         10968 
 4 110004                      8.3                     5.87 0.536         15069.
 5 110005                     10.4                     5.24 0.550         13024.
 6 110006                     12.9                     6.32 0.502         10341.
 7 110007                     12                       3.45 0.517         13041.
 8 110008                      9.1                     4.64 0.558          7874.
 9 110009                      9.4                     4.51 0.589         10836.
10 110010                      9                       6.84 0.670         14355.
# ℹ 5,556 more rows
# ℹ abbreviated name: ¹​`Taxa_de_desemprego_16a_e+`
# ℹ 13 more variables: `%_população_com_renda_<_1/4_SM` <dbl>,
#   Taxa_de_trabalho_infantil <dbl>, Porcentagem_Homens_Jovens <chr>,
#   `valor-2010` <dbl>, `valor-2011` <dbl>, `valor-2012` <dbl>,
#   `valor-2013` <dbl>, `valor-2014` <dbl>, `valor-2015` <dbl>,
#   `valor-2016` <dbl>, `valor-2017` <dbl>, `valor-2018` <dbl>, …
…
